{
  "extract_dir": "",
  "hash": "c3110dcdf1a3a679750aea6253226a21c792043e",
  "log_url": "https://storage.googleapis.com/nativeclient-once/log/binutils_arm_i686_w64_mingw32_0801ea63b9a88ddd529816903d7b301af1766898.log",
  "name": "binutils_arm_i686_w64_mingw32.tgz",
  "tar_src_dir": "",
  "url": "https://storage.googleapis.com/nativeclient-once/object/binutils_arm_i686_w64_mingw32_0801ea63b9a88ddd529816903d7b301af1766898.tgz"
}