{
  "extract_dir": "",
  "hash": "fff6d54f61f8c29a1ad96a0e85a0fde871fa0284",
  "log_url": "https://storage.googleapis.com/nativeclient-once/log/compiler_rt_bc_x86_64_bc_8e0b399936ce2fa5fa00dac3f9c1e423a5f85478.log",
  "name": "compiler_rt_bc_x86_64_bc.tgz",
  "tar_src_dir": "",
  "url": "https://storage.googleapis.com/nativeclient-once/object/compiler_rt_bc_x86_64_bc_8e0b399936ce2fa5fa00dac3f9c1e423a5f85478.tgz"
}