{
  "extract_dir": "",
  "hash": "749bf31a0f8b4d66a43f446fb8c573f38775f83c",
  "log_url": "https://storage.googleapis.com/nativeclient-once/log/libcxx_i686_05d86015681b1a669c1f976da26a3aaa7d528712.log",
  "name": "libcxx_i686.tgz",
  "tar_src_dir": "",
  "url": "https://storage.googleapis.com/nativeclient-once/object/libcxx_i686_05d86015681b1a669c1f976da26a3aaa7d528712.tgz"
}