{
  "extract_dir": "",
  "hash": "775390254e1cd68cfbf2d8a193a2d83753a9f1a7",
  "log_url": "https://storage.googleapis.com/nativeclient-once/log/libgcc_eh_x86_64_729cfb07fe284ff8deb43d30467ab31a3ae17edd.log",
  "name": "libgcc_eh_x86_64.tgz",
  "tar_src_dir": "",
  "url": "https://storage.googleapis.com/nativeclient-once/object/libgcc_eh_x86_64_729cfb07fe284ff8deb43d30467ab31a3ae17edd.tgz"
}