{
  "extract_dir": "",
  "hash": "b4942d281aad48e4792392f5dd47280abe6e8a27",
  "log_url": "https://storage.googleapis.com/nativeclient-once/log/libs_support_mipsel_35f0b289e96d0e3173fb5aa750388777caca5a2f.log",
  "name": "libs_support_mipsel.tgz",
  "tar_src_dir": "",
  "url": "https://storage.googleapis.com/nativeclient-once/object/libs_support_mipsel_35f0b289e96d0e3173fb5aa750388777caca5a2f.tgz"
}