<?xml version="1.0" encoding="UTF-8"?>
<grit latest_public_release="0" current_release="1" output_all_resource_defines="false">
  <outputs>
    <output filename="grit/browser_resources.h" type="rc_header">
      <emit emit_type='prepend'></emit>
    </output>
    <output filename="browser_resources.pak" type="data_package" />
  </outputs>
  <release seq="1">
    <structures>
      <if expr="chromeos">
        <structure name="IDR_FIRST_RUN_HTML" file="resources\chromeos\first_run\first_run.html" flattenhtml="true" type="chrome_html"/>
        <structure name="IDR_FIRST_RUN_JS" file="resources\chromeos\first_run\first_run.js" flattenhtml="true" type="chrome_html" />
      </if>
      <if expr="not is_android">
        <structure name="IDR_INCOGNITO_TAB_HTML" file="resources\ntp4\incognito_tab.html" flattenhtml="true" type="chrome_html" />
        <structure name="IDR_GUEST_TAB_HTML" file="resources\ntp4\guest_tab.html" flattenhtml="true" type="chrome_html" />
      </if>
      <if expr="chromeos">
        <structure name="IDR_LOCK_HTML" file="resources\chromeos\login\lock.html" flattenhtml="true" type="chrome_html" variables="OOBE=lock" expand_variables="true"/>
        <structure name="IDR_LOCK_JS" file="resources\chromeos\login\lock.js" flattenhtml="true" type="chrome_html" variables="OOBE=lock" expand_variables="true" />
        <structure name="IDR_MD_LOCK_HTML" file="resources\chromeos\login\md_lock.html" flattenhtml="true" type="chrome_html" variables="OOBE=md_lock" expand_variables="true"/>
        <structure name="IDR_MD_LOCK_JS" file="resources\chromeos\login\md_lock.js" flattenhtml="true" type="chrome_html" />
        <structure name="IDR_LOGIN_HTML" file="resources\chromeos\login\login.html" flattenhtml="true" type="chrome_html" variables="OOBE=login" expand_variables="true"/>
        <structure name="IDR_LOGIN_JS" file="resources\chromeos\login\login.js" flattenhtml="true" type="chrome_html" />
        <structure name="IDR_MD_LOGIN_HTML" file="resources\chromeos\login\md_login.html" flattenhtml="true" type="chrome_html" variables="OOBE=md_login" expand_variables="true"/>
        <structure name="IDR_MD_LOGIN_JS" file="resources\chromeos\login\md_login.js" flattenhtml="true" type="chrome_html" />
      </if>
      <if expr="not is_android">
        <structure name="IDR_NEW_INCOGNITO_TAB_THEME_CSS" file="resources\ntp4\new_incognito_tab_theme.css" flattenhtml="true" type="chrome_html" />
        <structure name="IDR_NEW_TAB_4_HTML" file="resources\ntp4\new_tab.html" flattenhtml="true" type="chrome_html" />
        <structure name="IDR_NEW_TAB_4_THEME_CSS" file="resources\ntp4\new_tab_theme.css" flattenhtml="true" type="chrome_html" />
      </if>
      <if expr="chromeos">
        <structure name="IDR_OOBE_HTML" file="resources\chromeos\login\oobe.html" flattenhtml="true" type="chrome_html" variables="OOBE=oobe" expand_variables="true"/>
        <structure name="IDR_OOBE_JS" file="resources\chromeos\login\oobe.js" flattenhtml="true" type="chrome_html" />
        <structure name="IDR_OOBE_ENROLLMENT_HTML" file="resources\chromeos\login\oobe_screen_oauth_enrollment.html" flattenhtml="true" type="chrome_html" />
        <structure name="IDR_OOBE_ENROLLMENT_CSS" file="resources\chromeos\login\oobe_screen_oauth_enrollment.css" flattenhtml="true" type="chrome_html" />
        <structure name="IDR_OOBE_ENROLLMENT_JS" file="resources\chromeos\login\oobe_screen_oauth_enrollment.js" flattenhtml="true" type="chrome_html" />
        <structure name="IDR_KEYBOARD_UTILS_JS" file="resources\chromeos\keyboard\keyboard_utils.js" flattenhtml="true" type="chrome_html" />
        <structure name="IDR_CUSTOM_ELEMENTS_OOBE_HTML" file="resources\chromeos\login\custom_elements_oobe.html" flattenhtml="true" type="chrome_html" />
        <structure name="IDR_CUSTOM_ELEMENTS_OOBE_JS" file="resources\chromeos\login\custom_elements_oobe.js" flattenhtml="true" type="chrome_html" />
        <structure name="IDR_CUSTOM_ELEMENTS_LOCK_HTML" file="resources\chromeos\login\custom_elements_lock.html" flattenhtml="true" type="chrome_html" />
        <structure name="IDR_CUSTOM_ELEMENTS_LOCK_JS" file="resources\chromeos\login\custom_elements_lock.js" flattenhtml="true" type="chrome_html" />
        <structure name="IDR_CUSTOM_ELEMENTS_USER_POD_HTML" file="resources\chromeos\login\custom_elements_user_pod.html" flattenhtml="true" type="chrome_html" />
        <structure name="IDR_CUSTOM_ELEMENTS_LOGIN_HTML" file="resources\chromeos\login\custom_elements_login.html" flattenhtml="true" type="chrome_html" />
        <structure name="IDR_CUSTOM_ELEMENTS_LOGIN_JS" file="resources\chromeos\login\custom_elements_login.js" flattenhtml="true" type="chrome_html" />
        <structure name="IDR_ASSISTANT_OPTIN_HTML" file="resources\chromeos\assistant_optin\assistant_optin.html" flattenhtml="true" allowexternalscript="true" type="chrome_html" />
        <structure name="IDR_ASSISTANT_OPTIN_JS" file="resources\chromeos\assistant_optin\assistant_optin.js" flattenhtml="true" allowexternalscript="true" type="chrome_html" />
      </if>
      <structure name="IDR_SIGNIN_SHARED_CSS_HTML" file="resources\signin\signin_shared_css.html" preprocess="true" allowexternalscript="true" type="chrome_html" />
      <if expr="not is_android and not chromeos">
        <structure name="IDR_WELCOME_CSS" file="resources\welcome\welcome.css" type="chrome_html" preprocess="true"/>
        <structure name="IDR_WELCOME_HTML" file="resources\welcome\welcome.html" type="chrome_html" preprocess="true"/>
        <structure name="IDR_WELCOME_JS" file="resources\welcome\welcome.js" type="chrome_html" preprocess="true"/>
        <structure name="IDR_DICE_WELCOME_CSS" file="resources\welcome\dice_welcome\welcome.css" type="chrome_html" preprocess="true"/>
        <structure name="IDR_DICE_WELCOME_HTML" file="resources\welcome\dice_welcome\welcome.html" type="chrome_html" preprocess="true"/>
        <structure name="IDR_DICE_WELCOME_BROWSER_PROXY_HTML" file="resources\welcome\dice_welcome\welcome_browser_proxy.html" type="chrome_html" preprocess="true"/>
        <structure name="IDR_DICE_WELCOME_BROWSER_PROXY_JS" file="resources\welcome\dice_welcome\welcome_browser_proxy.js" type="chrome_html" preprocess="true"/>
        <structure name="IDR_DICE_WELCOME_APP_HTML" file="resources\welcome\dice_welcome\welcome_app.html" type="chrome_html" preprocess="true"/>
        <structure name="IDR_DICE_WELCOME_APP_JS" file="resources\welcome\dice_welcome\welcome_app.js" type="chrome_html" preprocess="true"/>
      </if>
      <if expr="is_win">
        <structure name="IDR_WELCOME_WIN10_CSS" file="resources\welcome\welcome_win10.css" type="chrome_html" />
        <structure name="IDR_WELCOME_WIN10_HTML" file="resources\welcome\welcome_win10.html" type="chrome_html" />
        <structure name="IDR_WELCOME_WIN10_JS" file="resources\welcome\welcome_win10.js" type="chrome_html" />
      </if>
    </structures>
    <includes>
      <if expr="is_win or is_macosx or desktop_linux or chromeos">
        <include name="IDR_ABOUT_DISCARDS_CSS" file="resources\discards\discards.css" type="BINDATA" />
        <include name="IDR_ABOUT_DISCARDS_HTML" file="resources\discards\discards.html" flattenhtml="true" allowexternalscript="true" type="BINDATA" />
        <include name="IDR_ABOUT_DISCARDS_JS" file="resources\discards\discards.js" type="BINDATA" />
        <include name="IDR_ABOUT_DISCARDS_MOJO_JS" file="${root_gen_dir}\chrome\browser\ui\webui\discards\discards.mojom.js" use_base_dir="false" type="BINDATA" />
      </if>
      <if expr="is_win">
        <include name="IDR_ABOUT_CONFLICTS_HTML" file="resources\about_conflicts.html" flattenhtml="true" allowexternalscript="true" type="BINDATA" />
        <include name="IDR_ABOUT_CONFLICTS_JS" file="resources\about_conflicts.js" type="BINDATA" />
      </if>
      <if expr="enable_plugins">
        <include name="IDR_ABOUT_FLASH_HTML" file="resources\about_flash.html" flattenhtml="true" allowexternalscript="true" type="BINDATA" />
        <include name="IDR_ABOUT_FLASH_JS" file="resources\about_flash.js" type="BINDATA" />
      </if>
      <if expr="not disable_nacl">
        <include name="IDR_ABOUT_NACL_HTML" file="resources\about_nacl.html" flattenhtml="true" allowexternalscript="true" type="BINDATA" />
        <include name="IDR_ABOUT_NACL_CSS" file="resources\about_nacl.css" flattenhtml="true" type="chrome_html" />
        <include name="IDR_ABOUT_NACL_JS" file="resources\about_nacl.js" type="BINDATA" />
      </if>
      <if expr="not is_android">
        <include name="IDR_ABOUT_SYS_HTML" file="resources\about_sys\about_sys.html" flattenhtml="true" type="BINDATA" />
      </if>
      <include name="IDR_AD_NETWORK_HASHES" file="resources\ad_networks.dat" type="BINDATA" />
      <include name="IDR_BLUETOOTH_ADAPTER_MOJO_JS" file="${root_gen_dir}\device\bluetooth\public\mojom\adapter.mojom.js" use_base_dir="false" type="BINDATA" compress="gzip" />
      <include name="IDR_BLUETOOTH_DEVICE_MOJO_JS" file="${root_gen_dir}\device\bluetooth\public\mojom\device.mojom.js" use_base_dir="false" type="BINDATA" compress="gzip" />
      <include name="IDR_BLUETOOTH_UUID_MOJO_JS" file="${root_gen_dir}\device\bluetooth\public\mojom\uuid.mojom.js" use_base_dir="false" type="BINDATA" compress="gzip" />
      <include name="IDR_BLUETOOTH_INTERNALS_CSS" file="resources\bluetooth_internals\bluetooth_internals.css" type="BINDATA" compress="gzip" />
      <include name="IDR_BLUETOOTH_INTERNALS_ADAPTER_BROKER_JS" file="resources\bluetooth_internals\adapter_broker.js" type="BINDATA" compress="gzip" />
      <include name="IDR_BLUETOOTH_INTERNALS_ADAPTER_PAGE_JS" file="resources\bluetooth_internals\adapter_page.js" type="BINDATA" compress="gzip" />
      <include name="IDR_BLUETOOTH_INTERNALS_CHARACTERISTIC_LIST_JS" file="resources\bluetooth_internals\characteristic_list.js" type="BINDATA" compress="gzip" />
      <include name="IDR_BLUETOOTH_INTERNALS_DESCRIPTOR_LIST_JS" file="resources\bluetooth_internals\descriptor_list.js" type="BINDATA" compress="gzip" />
      <include name="IDR_BLUETOOTH_INTERNALS_DEVICE_BROKER_JS" file="resources\bluetooth_internals\device_broker.js" type="BINDATA" compress="gzip" />
      <include name="IDR_BLUETOOTH_INTERNALS_DEVICE_COLLECTION_JS" file="resources\bluetooth_internals\device_collection.js" type="BINDATA" compress="gzip" />
      <include name="IDR_BLUETOOTH_INTERNALS_DEVICE_DETAILS_PAGE_JS" file="resources\bluetooth_internals\device_details_page.js" type="BINDATA" compress="gzip" />
      <include name="IDR_BLUETOOTH_INTERNALS_DEVICE_TABLE_JS" file="resources\bluetooth_internals\device_table.js" type="BINDATA" compress="gzip" />
      <include name="IDR_BLUETOOTH_INTERNALS_DEVICES_PAGE_JS" file="resources\bluetooth_internals\devices_page.js" type="BINDATA" compress="gzip" />
      <include name="IDR_BLUETOOTH_INTERNALS_EXPANDABLE_LIST_JS" file="resources\bluetooth_internals\expandable_list.js" type="BINDATA" compress="gzip" />
      <include name="IDR_BLUETOOTH_INTERNALS_HTML" file="resources\bluetooth_internals\bluetooth_internals.html" flattenhtml="true" allowexternalscript="true" type="BINDATA" compress="gzip" />
      <include name="IDR_BLUETOOTH_INTERNALS_JS" file="resources\bluetooth_internals\bluetooth_internals.js" type="BINDATA" compress="gzip" />
      <include name="IDR_BLUETOOTH_INTERNALS_MOJO_JS" file="${root_gen_dir}\chrome\browser\ui\webui\bluetooth_internals\bluetooth_internals.mojom.js" use_base_dir="false" type="BINDATA" compress="gzip" />
      <include name="IDR_BLUETOOTH_INTERNALS_OBJECT_FIELDSET_JS" file="resources\bluetooth_internals\object_fieldset.js" type="BINDATA" compress="gzip" />
      <include name="IDR_BLUETOOTH_INTERNALS_SERVICE_LIST_JS" file="resources\bluetooth_internals\service_list.js" type="BINDATA" compress="gzip" />
      <include name="IDR_BLUETOOTH_INTERNALS_SIDEBAR_JS" file="resources\bluetooth_internals\sidebar.js" type="BINDATA" compress="gzip" />
      <include name="IDR_BLUETOOTH_INTERNALS_SNACKBAR_JS" file="resources\bluetooth_internals\snackbar.js" type="BINDATA" compress="gzip" />
      <include name="IDR_BLUETOOTH_INTERNALS_VALUE_CONTROL_JS" file="resources\bluetooth_internals\value_control.js" type="BINDATA" compress="gzip" />
      <if expr="is_posix and not is_macosx">
        <include name="IDR_CERTIFICATE_VIEWER_HTML" file="resources\certificate_viewer.html" type="BINDATA" />
        <include name="IDR_CERTIFICATE_VIEWER_JS" file="resources\certificate_viewer.js" type="BINDATA" />
        <include name="IDR_CERTIFICATE_VIEWER_CSS" file="resources\certificate_viewer.css" type="BINDATA" />
      </if>
      <if expr="enable_app_list">
        <include name="IDR_CHROME_APP_MANIFEST" file="resources\chrome_app\manifest.json" type="BINDATA" />
      </if>
      <if expr="enable_printing">
        <include name="IDR_CLOUDPRINT_MANIFEST" file="resources\cloud_print_app\manifest.json" type="BINDATA" />
        <include name="IDR_PDF_COMPOSITOR_MANIFEST" file="..\..\components\printing\service\pdf_compositor_manifest.json" type="BINDATA" />
      </if>
      <include name="IDR_CHROME_RENDERER_SERVICE_MANIFEST" file="..\app\chrome_renderer_manifest.json" type="BINDATA" />
      <include name="IDR_DEVTOOLS_DISCOVERY_PAGE_HTML" file="devtools\frontend\devtools_discovery_page.html" type="BINDATA"/>
      <include name="IDR_DOMAIN_RELIABILITY_INTERNALS_HTML" file="resources\domain_reliability_internals.html" compress="gzip" type="BINDATA" />
      <include name="IDR_DOMAIN_RELIABILITY_INTERNALS_CSS" file="resources\domain_reliability_internals.css" compress="gzip" type="BINDATA" />
      <include name="IDR_DOMAIN_RELIABILITY_INTERNALS_JS" file="resources\domain_reliability_internals.js" compress="gzip" type="BINDATA" />
      <if expr="safe_browsing_mode != 0">
        <include name="IDR_DOWNLOAD_FILE_TYPES_PB" file="${root_gen_dir}\chrome\browser\resources\safe_browsing\download_file_types.pb" use_base_dir="false" type="BINDATA" />
      </if>
      <include name="IDR_DOWNLOAD_INTERNALS_HTML" file="resources\download_internals\download_internals.html" flattenhtml="true" allowexternalscript="true" type="BINDATA" compress="gzip" />
      <include name="IDR_DOWNLOAD_INTERNALS_CSS" file="resources\download_internals\download_internals.css" type="BINDATA" compress="gzip" />
      <include name="IDR_DOWNLOAD_INTERNALS_JS" file="resources\download_internals\download_internals.js" type="BINDATA" compress="gzip" />
      <include name="IDR_DOWNLOAD_INTERNALS_BROWSER_PROXY_JS" file="resources\download_internals\download_internals_browser_proxy.js" type="BINDATA" compress="gzip" />
      <include name="IDR_DOWNLOAD_INTERNALS_VISUALS_JS" file="resources\download_internals\download_internals_visuals.js" type="BINDATA" compress="gzip" />
      <if expr="not is_android">
        <include name="IDR_MD_DOWNLOADS_1X_INCOGNITO_MARKER_PNG" file="resources\md_downloads\1x\incognito_marker.png" type="BINDATA" />
        <include name="IDR_MD_DOWNLOADS_2X_INCOGNITO_MARKER_PNG" file="resources\md_downloads\2x\incognito_marker.png" type="BINDATA" />
        <include name="IDR_MD_DOWNLOADS_1X_NO_DOWNLOADS_PNG" file="resources\md_downloads\1x\no_downloads.png" type="BINDATA" />
        <include name="IDR_MD_DOWNLOADS_2X_NO_DOWNLOADS_PNG" file="resources\md_downloads\2x\no_downloads.png" type="BINDATA" />
        <if expr="optimize_webui">
          <then>
            <include name="IDR_MD_DOWNLOADS_VULCANIZED_HTML" file="${root_gen_dir}\chrome\browser\resources\md_downloads\vulcanized.html" use_base_dir="false" flattenhtml="true" allowexternalscript="true" type="BINDATA" compress="gzip" />
            <include name="IDR_MD_DOWNLOADS_CRISPER_JS" file="${root_gen_dir}\chrome\browser\resources\md_downloads\crisper.js" use_base_dir="false" flattenhtml="true" type="BINDATA" compress="gzip" />
          </then>
          <else>
            <include name="IDR_MD_DOWNLOADS_DOWNLOADS_HTML" file="resources\md_downloads\downloads.html" flattenhtml="true" allowexternalscript="true" type="BINDATA" />
            <include name="IDR_MD_DOWNLOADS_BROWSER_PROXY_HTML" file="resources\md_downloads\browser_proxy.html" type="BINDATA" />
            <include name="IDR_MD_DOWNLOADS_BROWSER_PROXY_JS" file="resources\md_downloads\browser_proxy.js" type="BINDATA" />
            <include name="IDR_MD_DOWNLOADS_CONSTANTS_HTML" file="resources\md_downloads\constants.html" type="BINDATA" />
            <include name="IDR_MD_DOWNLOADS_CONSTANTS_JS" file="resources\md_downloads\constants.js" type="BINDATA" />
            <include name="IDR_MD_DOWNLOADS_DOWNLOADS_JS" file="resources\md_downloads\downloads.js" type="BINDATA" />
            <include name="IDR_MD_DOWNLOADS_I18N_SETUP_HTML" file="resources\md_downloads\i18n_setup.html" type="BINDATA" />
            <include name="IDR_MD_DOWNLOADS_ICONS_HTML" file="resources\md_downloads\icons.html" type="BINDATA" />
            <include name="IDR_MD_DOWNLOADS_ITEM_HTML" file="resources\md_downloads\item.html" type="BINDATA" />
            <include name="IDR_MD_DOWNLOADS_ITEM_JS" file="resources\md_downloads\item.js" type="BINDATA" />
            <include name="IDR_MD_DOWNLOADS_MANAGER_HTML" file="resources\md_downloads\manager.html" type="BINDATA" />
            <include name="IDR_MD_DOWNLOADS_MANAGER_JS" file="resources\md_downloads\manager.js" type="BINDATA" />
            <include name="IDR_MD_DOWNLOADS_SEARCH_SERVICE_HTML" file="resources\md_downloads\search_service.html" type="BINDATA" />
            <include name="IDR_MD_DOWNLOADS_SEARCH_SERVICE_JS" file="resources\md_downloads\search_service.js" type="BINDATA" />
            <include name="IDR_MD_DOWNLOADS_TOOLBAR_HTML" file="resources\md_downloads\toolbar.html" type="BINDATA" />
            <include name="IDR_MD_DOWNLOADS_TOOLBAR_JS" file="resources\md_downloads\toolbar.js" type="BINDATA" />
          </else>
        </if>
      </if>
      <include name="IDR_FEEDBACK_MANIFEST" file="resources\feedback\manifest.json" type="BINDATA" />
      <if expr="is_android">
        <include name="IDR_OFFLINE_INTERNALS_HTML" file="resources\offline_pages\offline_internals.html" flattenhtml="true" allowexternalscript="true" type="BINDATA" compress="gzip" />
        <include name="IDR_OFFLINE_INTERNALS_CSS" file="resources\offline_pages\offline_internals.css" type="BINDATA" compress="gzip" />
        <include name="IDR_OFFLINE_INTERNALS_JS" file="resources\offline_pages\offline_internals.js" type="BINDATA" compress="gzip" />
        <include name="IDR_OFFLINE_INTERNALS_BROWSER_PROXY_JS" file="resources\offline_pages\offline_internals_browser_proxy.js" type="BINDATA" compress="gzip" />
        <include name="IDR_SNIPPETS_INTERNALS_HTML" file="resources\snippets_internals\snippets_internals.html" allowexternalscript="true" compress="gzip" type="BINDATA" />
        <include name="IDR_SNIPPETS_INTERNALS_CSS" file="resources\snippets_internals\snippets_internals.css" compress="gzip" type="BINDATA" />
        <include name="IDR_SNIPPETS_INTERNALS_JS" file="resources\snippets_internals\snippets_internals.js" compress="gzip" type="BINDATA" />
      </if>
      <include name="IDR_SUPERVISED_USER_INTERNALS_HTML" file="resources\supervised_user_internals.html" allowexternalscript="true" compress="gzip" type="BINDATA" />
      <include name="IDR_SUPERVISED_USER_INTERNALS_CSS" file="resources\supervised_user_internals.css" compress="gzip" type="BINDATA" />
      <include name="IDR_SUPERVISED_USER_INTERNALS_JS" file="resources\supervised_user_internals.js" compress="gzip" type="BINDATA" />
      <if expr="enable_hangout_services_extension">
        <!-- Hangout Services extension, included in Google Chrome builds only. -->
        <include name="IDR_HANGOUT_SERVICES_MANIFEST" file="resources\hangout_services\manifest.json" type="BINDATA" />
      </if>

      <if expr="not is_android">
        <!-- MD Bookmarks. -->
        <include name="IDR_MD_BOOKMARKS_IMAGES_FOLDER_OPEN_SVG" file="resources\md_bookmarks\images\folder_open.svg" type="BINDATA" />
        <include name="IDR_MD_BOOKMARKS_IMAGES_FOLDER_SVG" file="resources\md_bookmarks\images\folder.svg" type="BINDATA" />
        <if expr="optimize_webui">
          <then>
            <include name="IDR_MD_BOOKMARKS_VULCANIZED_HTML" file="${root_gen_dir}\chrome\browser\resources\md_bookmarks\vulcanized.html" use_base_dir="false" flattenhtml="true" allowexternalscript="true" type="BINDATA" compress="gzip" />
            <include name="IDR_MD_BOOKMARKS_CRISPER_JS" file="${root_gen_dir}\chrome\browser\resources\md_bookmarks\crisper.js" use_base_dir="false" flattenhtml="true" type="BINDATA" compress="gzip" />
          </then>
          <else>
            <include name="IDR_MD_BOOKMARKS_ACTIONS_HTML" file="resources\md_bookmarks\actions.html" type="BINDATA" />
            <include name="IDR_MD_BOOKMARKS_ACTIONS_JS" file="resources\md_bookmarks\actions.js" type="BINDATA" />
            <include name="IDR_MD_BOOKMARKS_API_LISTENER_HTML" file="resources\md_bookmarks\api_listener.html" type="BINDATA" />
            <include name="IDR_MD_BOOKMARKS_API_LISTENER_JS" file="resources\md_bookmarks\api_listener.js" type="BINDATA" />
            <include name="IDR_MD_BOOKMARKS_APP_HTML" file="resources\md_bookmarks\app.html" type="BINDATA" flattenhtml="true" />
            <include name="IDR_MD_BOOKMARKS_APP_JS" file="resources\md_bookmarks\app.js" type="BINDATA" />
            <include name="IDR_MD_BOOKMARKS_BOOKMARKS_HTML" file="resources\md_bookmarks\bookmarks.html" type="BINDATA" />
            <include name="IDR_MD_BOOKMARKS_COMMAND_MANAGER_HTML" file="resources\md_bookmarks\command_manager.html" type="BINDATA" />
            <include name="IDR_MD_BOOKMARKS_COMMAND_MANAGER_JS" file="resources\md_bookmarks\command_manager.js" type="BINDATA" />
            <include name="IDR_MD_BOOKMARKS_CONSTANTS_HTML" file="resources\md_bookmarks\constants.html" type="BINDATA" />
            <include name="IDR_MD_BOOKMARKS_CONSTANTS_JS" file="resources\md_bookmarks\constants.js" type="BINDATA" />
            <include name="IDR_MD_BOOKMARKS_DEBOUNCER_HTML" file="resources\md_bookmarks\debouncer.html" type="BINDATA" />
            <include name="IDR_MD_BOOKMARKS_DEBOUNCER_JS" file="resources\md_bookmarks\debouncer.js" type="BINDATA" />
            <include name="IDR_MD_BOOKMARKS_DIALOG_FOCUS_MANAGER_HTML" file="resources\md_bookmarks\dialog_focus_manager.html" type="BINDATA" />
            <include name="IDR_MD_BOOKMARKS_DIALOG_FOCUS_MANAGER_JS" file="resources\md_bookmarks\dialog_focus_manager.js" type="BINDATA" />
            <include name="IDR_MD_BOOKMARKS_DND_CHIP_HTML" file="resources\md_bookmarks\dnd_chip.html" type="BINDATA" />
            <include name="IDR_MD_BOOKMARKS_DND_CHIP_JS" file="resources\md_bookmarks\dnd_chip.js" type="BINDATA" />
            <include name="IDR_MD_BOOKMARKS_DND_MANAGER_HTML" file="resources\md_bookmarks\dnd_manager.html" type="BINDATA" />
            <include name="IDR_MD_BOOKMARKS_DND_MANAGER_JS" file="resources\md_bookmarks\dnd_manager.js" type="BINDATA" />
            <include name="IDR_MD_BOOKMARKS_EDIT_DIALOG_HTML" file="resources\md_bookmarks\edit_dialog.html" type="BINDATA" />
            <include name="IDR_MD_BOOKMARKS_EDIT_DIALOG_JS" file="resources\md_bookmarks\edit_dialog.js" type="BINDATA" />
            <include name="IDR_MD_BOOKMARKS_FOLDER_NODE_HTML" file="resources\md_bookmarks\folder_node.html" type="BINDATA" />
            <include name="IDR_MD_BOOKMARKS_FOLDER_NODE_JS" file="resources\md_bookmarks\folder_node.js" type="BINDATA" />
            <include name="IDR_MD_BOOKMARKS_ITEM_HTML" file="resources\md_bookmarks\item.html" type="BINDATA" />
            <include name="IDR_MD_BOOKMARKS_ITEM_JS" file="resources\md_bookmarks\item.js" type="BINDATA" />
            <include name="IDR_MD_BOOKMARKS_LIST_HTML" file="resources\md_bookmarks\list.html" type="BINDATA" />
            <include name="IDR_MD_BOOKMARKS_LIST_JS" file="resources\md_bookmarks\list.js" type="BINDATA" />
            <include name="IDR_MD_BOOKMARKS_MOUSE_FOCUS_BEHAVIOR_HTML" file="resources\md_bookmarks\mouse_focus_behavior.html" type="BINDATA" />
            <include name="IDR_MD_BOOKMARKS_MOUSE_FOCUS_BEHAVIOR_JS" file="resources\md_bookmarks\mouse_focus_behavior.js" type="BINDATA" />
            <include name="IDR_MD_BOOKMARKS_REDUCERS_HTML" file="resources\md_bookmarks\reducers.html" type="BINDATA" />
            <include name="IDR_MD_BOOKMARKS_REDUCERS_JS" file="resources\md_bookmarks\reducers.js" type="BINDATA" />
            <include name="IDR_MD_BOOKMARKS_ROUTER_HTML" file="resources\md_bookmarks\router.html" type="BINDATA" />
            <include name="IDR_MD_BOOKMARKS_ROUTER_JS" file="resources\md_bookmarks\router.js" type="BINDATA" />
            <include name="IDR_MD_BOOKMARKS_SHARED_STYLE_HTML" file="resources\md_bookmarks\shared_style.html" type="BINDATA" />
            <include name="IDR_MD_BOOKMARKS_SHARED_VARS_HTML" file="resources\md_bookmarks\shared_vars.html" type="BINDATA" />
            <include name="IDR_MD_BOOKMARKS_STORE_CLIENT_HTML" file="resources\md_bookmarks\store_client.html" type="BINDATA" />
            <include name="IDR_MD_BOOKMARKS_STORE_CLIENT_JS" file="resources\md_bookmarks\store_client.js" type="BINDATA" />
            <include name="IDR_MD_BOOKMARKS_STORE_HTML" file="resources\md_bookmarks\store.html" type="BINDATA" />
            <include name="IDR_MD_BOOKMARKS_STORE_JS" file="resources\md_bookmarks\store.js" type="BINDATA" />
            <include name="IDR_MD_BOOKMARKS_TOAST_MANAGER_HTML" file="resources\md_bookmarks\toast_manager.html" type="BINDATA" />
            <include name="IDR_MD_BOOKMARKS_TOAST_MANAGER_JS" file="resources\md_bookmarks\toast_manager.js" type="BINDATA" />
            <include name="IDR_MD_BOOKMARKS_TOOLBAR_HTML" file="resources\md_bookmarks\toolbar.html" type="BINDATA" />
            <include name="IDR_MD_BOOKMARKS_TOOLBAR_JS" file="resources\md_bookmarks\toolbar.js" type="BINDATA" />
            <include name="IDR_MD_BOOKMARKS_UTIL_HTML" file="resources\md_bookmarks\util.html" type="BINDATA" />
            <include name="IDR_MD_BOOKMARKS_UTIL_JS" file="resources\md_bookmarks\util.js" type="BINDATA" />
          </else>
        </if>

        <!-- MD History. -->
        <include name="IDR_MD_HISTORY_CONSTANTS_HTML" file="resources\md_history\constants.html" type="BINDATA" />
        <include name="IDR_MD_HISTORY_CONSTANTS_JS" file="resources\md_history\constants.js" type="BINDATA" />
        <include name="IDR_MD_HISTORY_HISTORY_HTML" file="resources\md_history\history.html" flattenhtml="true" type="BINDATA" compress="gzip" />
        <include name="IDR_MD_HISTORY_HISTORY_JS" file="resources\md_history\history.js" type="BINDATA" />
        <include name="IDR_MD_HISTORY_IMAGES_100_SIGN_IN_PROMO_JPG" file="resources\md_history\images\100\sign_in_promo.jpg" type="BINDATA" />
        <include name="IDR_MD_HISTORY_IMAGES_200_SIGN_IN_PROMO_JPG" file="resources\md_history\images\200\sign_in_promo.jpg" type="BINDATA" />
        <if expr="optimize_webui">
          <then>
            <include name="IDR_MD_HISTORY_APP_VULCANIZED_HTML" file="${root_gen_dir}\chrome\browser\resources\md_history\app.vulcanized.html" flattenhtml="true" allowexternalscript="true" type="BINDATA" compress="gzip" use_base_dir="false" />
            <include name="IDR_MD_HISTORY_APP_CRISPER_JS" file="${root_gen_dir}\chrome\browser\resources\md_history\app.crisper.js" flattenhtml="true" allowexternalscript="true" type="BINDATA" compress="gzip" use_base_dir="false" />
            <include name="IDR_MD_HISTORY_LAZY_LOAD_VULCANIZED_HTML" file="${root_gen_dir}\chrome\browser\resources\md_history\lazy_load.vulcanized.html" allowexternalscript="true" type="BINDATA" compress="gzip" use_base_dir="false" />
            <include name="IDR_MD_HISTORY_LAZY_LOAD_CRISPER_JS" file="${root_gen_dir}\chrome\browser\resources\md_history\lazy_load.crisper.js" allowexternalscript="true" type="BINDATA" compress="gzip" use_base_dir="false" />
          </then>
          <else>
            <include name="IDR_MD_HISTORY_APP_HTML" file="resources\md_history\app.html" type="BINDATA" />
            <include name="IDR_MD_HISTORY_APP_JS" file="resources\md_history\app.js" type="BINDATA" />
            <include name="IDR_MD_HISTORY_BROWSER_SERVICE_HTML" file="resources\md_history\browser_service.html" type="BINDATA" />
            <include name="IDR_MD_HISTORY_BROWSER_SERVICE_JS" file="resources\md_history\browser_service.js" type="BINDATA" />
            <include name="IDR_MD_HISTORY_HISTORY_ITEM_HTML" file="resources\md_history\history_item.html" type="BINDATA" />
            <include name="IDR_MD_HISTORY_HISTORY_ITEM_JS" file="resources\md_history\history_item.js" type="BINDATA" />
            <include name="IDR_MD_HISTORY_HISTORY_LIST_HTML" file="resources\md_history\history_list.html" type="BINDATA" />
            <include name="IDR_MD_HISTORY_HISTORY_LIST_JS" file="resources\md_history\history_list.js" type="BINDATA" />
            <include name="IDR_MD_HISTORY_HISTORY_TOOLBAR_HTML" file="resources\md_history\history_toolbar.html" type="BINDATA" />
            <include name="IDR_MD_HISTORY_HISTORY_TOOLBAR_JS" file="resources\md_history\history_toolbar.js" type="BINDATA" />
            <include name="IDR_MD_HISTORY_ICONS_HTML" file="resources\md_history\icons.html" type="BINDATA" />
            <include name="IDR_MD_HISTORY_LAZY_LOAD_HTML" file="resources\md_history\lazy_load.html" type="BINDATA" />
            <include name="IDR_MD_HISTORY_QUERY_MANAGER_HTML" file="resources\md_history\query_manager.html" type="BINDATA" />
            <include name="IDR_MD_HISTORY_QUERY_MANAGER_JS" file="resources\md_history\query_manager.js" type="BINDATA" />
            <include name="IDR_MD_HISTORY_ROUTER_HTML" file="resources\md_history\router.html" type="BINDATA" />
            <include name="IDR_MD_HISTORY_ROUTER_JS" file="resources\md_history\router.js" type="BINDATA" />
            <include name="IDR_MD_HISTORY_SEARCHED_LABEL_HTML" file="resources\md_history\searched_label.html" type="BINDATA" />
            <include name="IDR_MD_HISTORY_SEARCHED_LABEL_JS" file="resources\md_history\searched_label.js" type="BINDATA" />
            <include name="IDR_MD_HISTORY_SHARED_STYLE_HTML" file="resources\md_history\shared_style.html" type="BINDATA" />
            <include name="IDR_MD_HISTORY_SHARED_VARS_HTML" file="resources\md_history\shared_vars.html" type="BINDATA" />
            <include name="IDR_MD_HISTORY_SIDE_BAR_HTML" file="resources\md_history\side_bar.html" type="BINDATA" />
            <include name="IDR_MD_HISTORY_SIDE_BAR_JS" file="resources\md_history\side_bar.js" type="BINDATA" />
            <include name="IDR_MD_HISTORY_SYNCED_DEVICE_CARD_HTML" file="resources\md_history\synced_device_card.html" type="BINDATA" />
            <include name="IDR_MD_HISTORY_SYNCED_DEVICE_CARD_JS" file="resources\md_history\synced_device_card.js" type="BINDATA" />
            <include name="IDR_MD_HISTORY_SYNCED_DEVICE_MANAGER_HTML" file="resources\md_history\synced_device_manager.html" type="BINDATA" />
            <include name="IDR_MD_HISTORY_SYNCED_DEVICE_MANAGER_JS" file="resources\md_history\synced_device_manager.js" type="BINDATA" />
          </else>
        </if>

        <!-- Page not available for guest. -->
        <include name="IDR_PAGE_NOT_AVAILABLE_FOR_GUEST_APP_HTML" file="resources\page_not_available_for_guest\app.html" type="BINDATA" />
      </if>

      <include name="IDR_IDENTITY_API_SCOPE_APPROVAL_MANIFEST" file="resources\identity_scope_approval_dialog\manifest.json" type="BINDATA" />
      <include name="IDR_INLINE_LOGIN_HTML" file="resources\inline_login\inline_login.html" flattenhtml="true" allowexternalscript="true" type="BINDATA" />
      <include name="IDR_INLINE_LOGIN_CSS" file="resources\inline_login\inline_login.css" flattenhtml="true" type="BINDATA" />
      <include name="IDR_INLINE_LOGIN_JS" file="resources\inline_login\inline_login.js" flattenhtml="true" type="BINDATA" />
      <include name="IDR_GAIA_AUTH_AUTHENTICATOR_JS" file="resources\gaia_auth_host\authenticator.js" flattenhtml="true" type="BINDATA" />
      <include name="IDR_INSPECT_CSS" file="resources\inspect\inspect.css" flattenhtml="true" type="BINDATA" />
      <include name="IDR_INSPECT_HTML" file="resources\inspect\inspect.html" flattenhtml="true" allowexternalscript="true" type="BINDATA" />
      <include name="IDR_INSPECT_JS" file="resources\inspect\inspect.js" flattenhtml="true" type="BINDATA" />
      <include name="IDR_INTERVENTIONS_INTERNALS_INDEX_HTML" file="resources\interventions_internals\index.html" flattenhtml="true" allowexternalscript="true" compress="gzip" type="BINDATA" />
      <include name="IDR_INTERVENTIONS_INTERNALS_INDEX_JS" file="resources\interventions_internals\index.js" type="BINDATA" compress="gzip" />
      <include name="IDR_INTERVENTIONS_INTERNALS_MOJO_INDEX_JS" file="${root_gen_dir}\chrome\browser\ui\webui\interventions_internals\interventions_internals.mojom.js" use_base_dir="false" type="BINDATA" compress="gzip" />
      <include name="IDR_INTERVENTIONS_INTERNALS_UNSUPPORTED_PAGE_HTML" file="resources\interventions_internals\unsupported_page.html" flattenhtml="true" allowexternalscript="true" compress="gzip" type="BINDATA" />
      <include name="IDR_NETWORK_SPEECH_SYNTHESIS_MANIFEST" file="resources\network_speech_synthesis\manifest.json" type="BINDATA" />
      <include name="IDR_PREDICTORS_HTML" file="resources\predictors\predictors.html" flattenhtml="true" allowexternalscript="true" type="BINDATA" compress="gzip" />
      <include name="IDR_PREDICTORS_JS" file="resources\predictors\predictors.js" flattenhtml="true" type="BINDATA" compress="gzip" />
      <if expr="not is_android">
        <include name="IDR_NOTIFICATION_1LINE_HTML" file="resources\notification_1line.html" flattenhtml="true" type="BINDATA" />
        <include name="IDR_NOTIFICATION_2LINE_HTML" file="resources\notification_2line.html" flattenhtml="true" type="BINDATA" />
        <include name="IDR_NOTIFICATION_ICON_HTML" file="resources\notification_icon.html" type="BINDATA" />
      </if>

      <if expr="enable_service_discovery">
        <include name="IDR_LOCAL_DISCOVERY_HTML" file="resources\local_discovery\local_discovery.html" flattenhtml="true" allowexternalscript="true" type="BINDATA" />
        <include name="IDR_LOCAL_DISCOVERY_CSS" file="resources\local_discovery\local_discovery.css" flattenhtml="true" type="BINDATA" />
        <include name="IDR_LOCAL_DISCOVERY_JS" file="resources\local_discovery\local_discovery.js" flattenhtml="true" type="BINDATA" />
      </if>

      <include name="IDR_INSTANT_IFRAME_VALIDATION_JS" file="resources\local_ntp\instant_iframe_validation.js" type="BINDATA" />
      <include name="IDR_LOCAL_NTP_HTML" file="resources\local_ntp\local_ntp.html" flattenhtml="true" allowexternalscript="true" type="BINDATA" />
      <include name="IDR_LOCAL_NTP_CSS" file="resources\local_ntp\local_ntp.css" flattenhtml="true" type="BINDATA" />
      <include name="IDR_LOCAL_NTP_JS" file="resources\local_ntp\local_ntp.js" flattenhtml="true" type="BINDATA" />
      <include name="IDR_LOCAL_NTP_VOICE_CSS" file="resources\local_ntp\voice.css" flattenhtml="true" type="BINDATA" />
      <include name="IDR_LOCAL_NTP_VOICE_JS" file="resources\local_ntp\voice.js" flattenhtml="true" type="BINDATA" />
      <include name="IDR_LOCAL_STATE_HTML" file="resources\local_state\local_state.html" flattenhtml="true" allowexternalscript="true" type="BINDATA" compress="gzip" />
      <include name="IDR_LOCAL_STATE_JS" file="resources\local_state\local_state.js" flattenhtml="true" allowexternalscript="true" type="BINDATA" compress="gzip" />
      <include name="IDR_MOST_VISITED_IFRAME_CSS" file="resources\local_ntp\most_visited_iframe.css" type="BINDATA" />
      <include name="IDR_MOST_VISITED_TITLE_HTML" file="resources\local_ntp\most_visited_title.html" type="BINDATA" />
      <include name="IDR_MOST_VISITED_TITLE_CSS" file="resources\local_ntp\most_visited_title.css" type="BINDATA" />
      <include name="IDR_MOST_VISITED_TITLE_JS" file="resources\local_ntp\most_visited_title.js" type="BINDATA" />
      <include name="IDR_MOST_VISITED_THUMBNAIL_HTML" file="resources\local_ntp\most_visited_thumbnail.html" type="BINDATA" />
      <include name="IDR_MOST_VISITED_THUMBNAIL_CSS" file="resources\local_ntp\most_visited_thumbnail.css" type="BINDATA" />
      <include name="IDR_MOST_VISITED_THUMBNAIL_JS" file="resources\local_ntp\most_visited_thumbnail.js" type="BINDATA" />
      <include name="IDR_MOST_VISITED_SINGLE_HTML" file="resources\local_ntp\most_visited_single.html" type="BINDATA" />
      <include name="IDR_MOST_VISITED_SINGLE_CSS" file="resources\local_ntp\most_visited_single.css" type="BINDATA" />
      <include name="IDR_MOST_VISITED_SINGLE_JS" file="resources\local_ntp\most_visited_single.js" type="BINDATA" />
      <include name="IDR_MOST_VISITED_UTIL_JS" file="resources\local_ntp\most_visited_util.js" type="BINDATA" flattenhtml="true" />
      <include name="IDR_OMNIBOX_HTML" file="resources\omnibox\omnibox.html" flattenhtml="true" allowexternalscript="true" type="BINDATA" compress="gzip" />
      <include name="IDR_OMNIBOX_CSS" file="resources\omnibox\omnibox.css" type="BINDATA" compress="gzip" />
      <include name="IDR_OMNIBOX_JS" file="resources\omnibox\omnibox.js" type="BINDATA" compress="gzip" />
      <include name="IDR_OMNIBOX_MOJO_JS" file="${root_gen_dir}\chrome\browser\ui\webui\omnibox\omnibox.mojom.js" use_base_dir="false" type="BINDATA" compress="gzip" />
      <include name="IDR_ORIGIN_MOJO_JS" file="${root_gen_dir}\url\mojom\origin.mojom.js" use_base_dir="false" type="BINDATA" compress="gzip"/>
      <include name="IDR_COMPONENTS_HTML" file="resources\components.html" flattenhtml="true" allowexternalscript="true" type="BINDATA" compress="gzip" />
      <include name="IDR_COMPONENTS_JS" file="resources\components.js" type="BINDATA" compress="gzip" />
      <include name="IDR_MEMORY_INTERNALS_HTML" file="resources\memory_internals.html" flattenhtml="true" type="BINDATA" compress="gzip" />
      <include name="IDR_MEMORY_INTERNALS_JS" file="resources\memory_internals.js" type="BINDATA" compress="gzip" />
      <if expr="enable_plugins">
        <include name="IDR_PDF_MANIFEST" file="resources\pdf\manifest.json" type="BINDATA" />
      </if>
      <if expr="is_win">
        <include name="IDR_PLUGIN_DB_JSON" file="resources\plugin_metadata\plugins_win.json" type="BINDATA" />
      </if>
      <if expr="is_macosx">
        <include name="IDR_PLUGIN_DB_JSON" file="resources\plugin_metadata\plugins_mac.json" type="BINDATA" />
      </if>
      <if expr="chromeos">
        <include name="IDR_PLUGIN_DB_JSON" file="resources\plugin_metadata\plugins_chromeos.json" type="BINDATA" />
      </if>
      <if expr="desktop_linux or (is_android and enable_plugins)">
        <include name="IDR_PLUGIN_DB_JSON" file="resources\plugin_metadata\plugins_linux.json" type="BINDATA" />
      </if>
      <if expr="is_android">
        <then>
          <include name="IDR_POLICY_CSS" file="resources\policy_android.css" type="BINDATA" compress="gzip" />
        </then>
        <else>
          <include name="IDR_POLICY_CSS" file="resources\policy.css" type="BINDATA" compress="gzip" />
        </else>
      </if>
      <include name="IDR_POLICY_HTML" file="resources\policy.html" flattenhtml="true" allowexternalscript="true" type="BINDATA" compress="gzip" />
      <include name="IDR_POLICY_BASE_JS" file="resources\policy_base.js" type="BINDATA" compress="gzip" />
      <include name="IDR_POLICY_JS" file="resources\policy.js" type="BINDATA" compress="gzip" />
      <include name="IDR_POLICY_COMMON_CSS" file="resources\policy_common.css" type="BINDATA" compress="gzip" />
      <if expr="not is_android">
        <include name="IDR_POLICY_TOOL_HTML" file="resources\policy_tool.html" flattenhtml="true" allowexternalscript="true" type="BINDATA" compress="gzip" />
        <include name="IDR_POLICY_TOOL_CSS" file="resources\policy_tool.css" type="BINDATA" compress="gzip" />
        <include name="IDR_POLICY_TOOL_JS" file="resources\policy_tool.js" type="BINDATA" compress="gzip" />
      </if>
      <if expr="enable_print_preview">
        <include name="IDR_PRINT_PREVIEW_HTML" file="resources\print_preview\print_preview.html" flattenhtml="true" allowexternalscript="true" type="BINDATA" />
        <include name="IDR_PRINT_PREVIEW_JS" file="resources\print_preview\print_preview.js" flattenhtml="true" type="BINDATA" />
        <include name="IDR_PRINT_PREVIEW_IMAGES_1X_PRINTER"
                 file="resources\print_preview\images\1x\printer.png" type="BINDATA" />
        <include name="IDR_PRINT_PREVIEW_IMAGES_2X_PRINTER"
                 file="resources\print_preview\images\2x\printer.png" type="BINDATA" />
        <include name="IDR_PRINT_PREVIEW_IMAGES_1X_PRINTER_SHARED"
                 file="resources\print_preview\images\1x\printer_shared.png" type="BINDATA" />
        <include name="IDR_PRINT_PREVIEW_IMAGES_2X_PRINTER_SHARED"
                 file="resources\print_preview\images\2x\printer_shared.png" type="BINDATA" />
        <include name="IDR_PRINT_PREVIEW_IMAGES_ENTERPRISE_PRINTER"
                 file="../../ui/webui/resources/images/business.svg" type="BINDATA" />
        <include name="IDR_PRINT_PREVIEW_IMAGES_GOOGLE_DOC"
                 file="resources\print_preview\images\google_doc.png" type="BINDATA" />
        <include name="IDR_PRINT_PREVIEW_IMAGES_PDF"
                 file="resources\print_preview\images\pdf.png" type="BINDATA" />
        <include name="IDR_PRINT_PREVIEW_IMAGES_MOBILE"
                 file="resources\print_preview\images\mobile.png" type="BINDATA" />
        <include name="IDR_PRINT_PREVIEW_IMAGES_MOBILE_SHARED"
                 file="resources\print_preview\images\mobile_shared.png" type="BINDATA" />
      </if>
      <include name="IDR_SITE_ENGAGEMENT_HTML" file="resources\engagement\site_engagement.html" flattenhtml="true" allowexternalscript="true" type="BINDATA" compress="gzip" />
      <include name="IDR_SITE_ENGAGEMENT_JS" file="resources\engagement\site_engagement.js" flattenhtml="true" type="BINDATA" compress="gzip" />
      <include name="IDR_SITE_ENGAGEMENT_MOJO_JS" file="${root_gen_dir}\chrome\browser\engagement\site_engagement_details.mojom.js" use_base_dir="false" type="BINDATA" compress="gzip" />
      <include name="IDR_URL_MOJO_JS" file="${root_gen_dir}\url\mojom\url.mojom.js" use_base_dir="false" type="BINDATA" compress="gzip" />
      <include name="IDR_SYNC_CONFIRMATION_CSS" file="resources\signin\sync_confirmation\sync_confirmation.css" type="BINDATA" />
      <include name="IDR_SYNC_CONFIRMATION_HTML" file="resources\signin\sync_confirmation\sync_confirmation.html" flattenhtml="true" allowexternalscript="true" type="BINDATA" />
      <include name="IDR_SYNC_CONFIRMATION_JS" file="resources\signin\sync_confirmation\sync_confirmation.js" type="BINDATA" />
      <include name="IDR_DICE_SYNC_CONFIRMATION_HTML" file="resources\signin\dice_sync_confirmation\sync_confirmation.html" flattenhtml="true" allowexternalscript="true" type="BINDATA" />
      <include name="IDR_DICE_SYNC_CONFIRMATION_JS" file="resources\signin\dice_sync_confirmation\sync_confirmation.js" type="BINDATA" />
      <include name="IDR_DICE_SYNC_CONFIRMATION_BROWSER_PROXY_HTML" file="resources\signin\dice_sync_confirmation\sync_confirmation_browser_proxy.html" type="BINDATA" />
      <include name="IDR_DICE_SYNC_CONFIRMATION_BROWSER_PROXY_JS" file="resources\signin\dice_sync_confirmation\sync_confirmation_browser_proxy.js" type="BINDATA" />
      <include name="IDR_DICE_SYNC_CONFIRMATION_APP_HTML" file="resources\signin\dice_sync_confirmation\sync_confirmation_app.html" type="BINDATA" flattenhtml="true" allowexternalscript="true" />
      <include name="IDR_DICE_SYNC_CONFIRMATION_APP_JS" file="resources\signin\dice_sync_confirmation\sync_confirmation_app.js" type="BINDATA" />
      <include name="IDR_SIGNIN_EMAIL_CONFIRMATION_HTML" file="resources\signin\signin_email_confirmation\signin_email_confirmation.html" flattenhtml="true" allowexternalscript="true" type="BINDATA" />
      <include name="IDR_SIGNIN_EMAIL_CONFIRMATION_JS" file="resources\signin\signin_email_confirmation\signin_email_confirmation.js" type="BINDATA" />
      <include name="IDR_SIGNIN_ERROR_HTML" file="resources\signin\signin_error\signin_error.html" flattenhtml="true" allowexternalscript="true" type="BINDATA" />
      <include name="IDR_SIGNIN_ERROR_JS" file="resources\signin\signin_error\signin_error.js" type="BINDATA" />
      <include name="IDR_USB_INTERNALS_CSS" file="resources\usb_internals\usb_internals.css" type="BINDATA" compress="gzip" />
      <include name="IDR_USB_INTERNALS_HTML" file="resources\usb_internals\usb_internals.html" flattenhtml="true" allowexternalscript="true" type="BINDATA" compress="gzip" />
      <include name="IDR_USB_INTERNALS_JS" file="resources\usb_internals\usb_internals.js" type="BINDATA" compress="gzip" />
      <include name="IDR_USB_INTERNALS_MOJO_JS" file="${root_gen_dir}\chrome\browser\ui\webui\usb_internals\usb_internals.mojom.js" use_base_dir="false" type="BINDATA" compress="gzip" />
      <include name="IDR_USER_ACTIONS_HTML" file="resources\user_actions\user_actions.html" flattenhtml="true" allowexternalscript="true" type="BINDATA" compress="gzip" />
      <include name="IDR_USER_ACTIONS_CSS" file="resources\user_actions\user_actions.css" type="BINDATA" compress="gzip" />
      <include name="IDR_USER_ACTIONS_JS" file="resources\user_actions\user_actions.js" type="BINDATA" compress="gzip" />
      <if expr="enable_webrtc">
        <include name="IDR_WEBRTC_LOGS_HTML" file="resources\media\webrtc_logs.html" flattenhtml="true" allowexternalscript="true" type="BINDATA" />
        <include name="IDR_WEBRTC_LOGS_JS" file="resources\media\webrtc_logs.js" type="BINDATA" />
      </if>
      <include name="IDR_WEBSTORE_MANIFEST" file="resources\webstore_app\manifest.json" type="BINDATA" />
      <include name="IDR_CRYPTOTOKEN_MANIFEST" file="resources\cryptotoken\manifest.json" type="BINDATA" />
      <include name="IDR_GAIA_AUTH_MANIFEST" file="resources\gaia_auth\manifest.json" type="BINDATA" />
      <if expr="chromeos">
        <if expr="optimize_webui">
          <then>
            <include name="IDR_BLUETOOTH_PAIRING_DIALOG_VULCANIZED_HTML" file="${root_gen_dir}\chrome\browser\resources\chromeos\bluetooth_pairing_dialog\vulcanized.html" use_base_dir="false" flattenhtml="true" allowexternalscript="true" type="BINDATA" compress="gzip" />
            <include name="IDR_BLUETOOTH_PAIRING_DIALOG_CRISPER_JS" file="${root_gen_dir}\chrome\browser\resources\chromeos\bluetooth_pairing_dialog\crisper.js" use_base_dir="false" flattenhtml="true" type="BINDATA" compress="gzip" />
          </then>
          <else>
            <include name="IDR_BLUETOOTH_PAIRING_DIALOG_HTML" file="resources\chromeos\bluetooth_pairing_dialog\bluetooth_pairing_dialog.html" flattenhtml="true" allowexternalscript="true" type="chrome_html" />
            <include name="IDR_BLUETOOTH_PAIRING_DIALOG_JS" file="resources\chromeos\bluetooth_pairing_dialog\bluetooth_pairing_dialog.js" type="chrome_html" />
          </else>
        </if>
        <include name="IDR_CROSH_BUILTIN_MANIFEST" file="resources\chromeos\crosh_builtin\manifest.json" type="BINDATA" />
        <include name="IDR_CRYPTOHOME_HTML" file="resources\chromeos\cryptohome.html" flattenhtml="true" type="BINDATA" />
        <include name="IDR_CRYPTOHOME_JS" file="resources\chromeos\cryptohome.js" type="BINDATA" />
        <!-- manifest file of Connectivity Diagnostics app -->
        <include name="IDR_CONNECTIVITY_DIAGNOSTICS_MANIFEST" file="resources\chromeos\connectivity_diagnostics\manifest.json" type="BINDATA" />
        <include name="IDR_CONNECTIVITY_DIAGNOSTICS_LAUNCHER_MANIFEST" file="resources\chromeos\connectivity_diagnostics_launcher\manifest.json" type="BINDATA" />
        <include name="IDR_DRIVE_INTERNALS_CSS" file="resources\chromeos\drive_internals.css" type="BINDATA" />
        <include name="IDR_DRIVE_INTERNALS_HTML" file="resources\chromeos\drive_internals.html" flattenhtml="true" type="BINDATA" />
        <include name="IDR_DRIVE_INTERNALS_JS" file="resources\chromeos\drive_internals.js" type="BINDATA" />
         <include name="IDR_GUEST_SESSION_TAB_HTML" file="resources\chromeos\guest_session_tab.html" flattenhtml="true" type="BINDATA" />
        <include name="IDR_KEYBOARD_OVERLAY_CSS" file="resources\chromeos\keyboard_overlay.css" flattenhtml="true" type="BINDATA" />
        <include name="IDR_KEYBOARD_OVERLAY_HTML" file="resources\chromeos\keyboard_overlay.html" flattenhtml="true" allowexternalscript="true" type="BINDATA" />
        <include name="IDR_KEYBOARD_OVERLAY_JS" file="resources\chromeos\keyboard_overlay.js" flattenhtml="true" type="BINDATA" />
        <include name="IDR_MOBILE_MANIFEST" file="resources\chromeos\mobile_app\manifest.json" type="BINDATA" />
        <include name="IDR_MOBILE_SETUP_PAGE_HTML" file="resources\chromeos\mobile_setup.html" flattenhtml="true" type="BINDATA" />
        <include name="IDR_MOBILE_SETUP_PORTAL_PAGE_HTML" file="resources\chromeos\mobile_setup_portal.html" flattenhtml="true" type="BINDATA" />
        <include name="IDR_ECHO_MANIFEST" file="resources\chromeos\echo\manifest.json" type="BINDATA" />
        <include name="IDR_MERGE_SESSION_LOAD_HTML" file="resources\chromeos\merge_session_load.html" flattenhtml="true" type="BINDATA" />
        <include name="IDR_OS_CREDITS_HTML" file="resources\chromeos\about_os_credits.html" flattenhtml="true" type="BINDATA" />
        <if expr="optimize_webui">
          <then>
            <include name="IDR_INTERNET_CONFIG_DIALOG_VULCANIZED_HTML" file="${root_gen_dir}\chrome\browser\resources\chromeos\internet_config_dialog\vulcanized.html" use_base_dir="false" flattenhtml="true" allowexternalscript="true" type="BINDATA" compress="gzip" />
            <include name="IDR_INTERNET_CONFIG_DIALOG_CRISPER_JS" file="${root_gen_dir}\chrome\browser\resources\chromeos\internet_config_dialog\crisper.js" use_base_dir="false" flattenhtml="true" type="BINDATA" compress="gzip" />
            <include name="IDR_INTERNET_DETAIL_DIALOG_VULCANIZED_HTML" file="${root_gen_dir}\chrome\browser\resources\chromeos\internet_detail_dialog\vulcanized.html" use_base_dir="false" flattenhtml="true" allowexternalscript="true" type="BINDATA" compress="gzip" />
            <include name="IDR_INTERNET_DETAIL_DIALOG_CRISPER_JS" file="${root_gen_dir}\chrome\browser\resources\chromeos\internet_detail_dialog\crisper.js" use_base_dir="false" flattenhtml="true" type="BINDATA" compress="gzip" />
          </then>
          <else>
            <include name="IDR_INTERNET_CONFIG_DIALOG_HTML" file="resources\chromeos\internet_config_dialog\internet_config_dialog.html" flattenhtml="true" allowexternalscript="true" type="chrome_html" />
            <include name="IDR_INTERNET_CONFIG_DIALOG_JS" file="resources\chromeos\internet_config_dialog\internet_config_dialog.js" type="chrome_html" />
            <include name="IDR_INTERNET_DETAIL_DIALOG_HTML" file="resources\chromeos\internet_detail_dialog\internet_detail_dialog.html" flattenhtml="true" allowexternalscript="true" type="chrome_html" />
            <include name="IDR_INTERNET_DETAIL_DIALOG_JS" file="resources\chromeos\internet_detail_dialog\internet_detail_dialog.js" type="chrome_html" />
          </else>
        </if>
        <include name="IDR_CERT_MANAGER_DIALOG_HTML" file="resources\chromeos\certificate_manager_dialog.html" flattenhtml="true" type="BINDATA" />
        <include name="IDR_SLOW_HTML" file="resources\chromeos\slow.html" flattenhtml="true" type="BINDATA" />
        <include name="IDR_SLOW_JS" file="resources\chromeos\slow.js" type="BINDATA" />
        <include name="IDR_HATS_HTML" file="resources\chromeos\hats\hats.html" flattenhtml="false" type="BINDATA" />
      </if>
      <if expr="chromeos">
        <include name="IDR_DEMO_APP_MANIFEST" file="resources\chromeos\demo_app\manifest.json" type="BINDATA" />
        <include name="IDR_WALLPAPERMANAGER_MANIFEST" file="resources\chromeos\wallpaper_manager\manifest.json" type="BINDATA" />
        <include name="IDR_FIRST_RUN_DIALOG_MANIFEST" file="resources\chromeos\first_run\app/manifest.json" type="BINDATA" />
        <include name="IDR_ARC_SUPPORT_MANIFEST" file="resources\chromeos\arc_support\manifest.json" type="BINDATA" />
      </if>
      <if expr="chromeos and _google_chrome">
        <include name="IDR_GENIUS_APP_MANIFEST" file="resources\chromeos\genius_app\manifest.json" type="BINDATA" />
        <include name="IDR_HELP_MANIFEST" file="resources\help_app\manifest.json" type="BINDATA" />
        <include name="IDR_QUICKOFFICE_MANIFEST" file="resources\chromeos\quickoffice\manifest.json" type="BINDATA" />
      </if>
      <if expr="is_win">
        <include name="IDR_SET_AS_DEFAULT_BROWSER_JS" file="resources\set_as_default_browser.js" flattenhtml="true" type="BINDATA" />
        <include name="IDR_SET_AS_DEFAULT_BROWSER_HTML" file="resources\set_as_default_browser.html" flattenhtml="true" allowexternalscript="true" type="BINDATA" />
      </if>
      <if expr="not is_android and not chromeos">
        <include name="IDR_MD_CONTROL_BAR_HTML" file="resources\md_user_manager\control_bar.html" type="BINDATA" />
        <include name="IDR_MD_CONTROL_BAR_JS" file="resources\md_user_manager\control_bar.js" type="BINDATA" />
        <include name="IDR_MD_CREATE_PROFILE_HTML" file="resources\md_user_manager\create_profile.html" type="BINDATA" />
        <include name="IDR_MD_CREATE_PROFILE_JS" file="resources\md_user_manager\create_profile.js" type="BINDATA" />
        <include name="IDR_MD_ERROR_DIALOG_HTML" file="resources\md_user_manager\error_dialog.html" type="BINDATA" />
        <include name="IDR_MD_ERROR_DIALOG_JS" file="resources\md_user_manager\error_dialog.js" type="BINDATA" />
        <include name="IDR_MD_IMPORT_SUPERVISED_USER_HTML" file="resources\md_user_manager\import_supervised_user.html" type="BINDATA" />
        <include name="IDR_MD_IMPORT_SUPERVISED_USER_JS" file="resources\md_user_manager\import_supervised_user.js" type="BINDATA" />
        <include name="IDR_MD_PROFILE_BROWSER_PROXY_HTML" file="resources\md_user_manager\profile_browser_proxy.html" type="BINDATA" />
        <include name="IDR_MD_PROFILE_BROWSER_PROXY_JS" file="resources\md_user_manager\profile_browser_proxy.js" type="BINDATA" />
        <include name="IDR_MD_SUPERVISED_USER_CREATE_CONFIRM_HTML" file="resources\md_user_manager\supervised_user_create_confirm.html" type="BINDATA" />
        <include name="IDR_MD_SUPERVISED_USER_CREATE_CONFIRM_JS" file="resources\md_user_manager\supervised_user_create_confirm.js" type="BINDATA" />
        <include name="IDR_MD_SUPERVISED_USER_LEARN_MORE_HTML" file="resources\md_user_manager\supervised_user_learn_more.html" type="BINDATA" />
        <include name="IDR_MD_SUPERVISED_USER_LEARN_MORE_JS" file="resources\md_user_manager\supervised_user_learn_more.js" type="BINDATA" />
        <include name="IDR_MD_USER_MANAGER_HTML" file="resources\md_user_manager\user_manager.html" flattenhtml="true" allowexternalscript="true" type="BINDATA" />
        <include name="IDR_MD_USER_MANAGER_JS" file="resources\md_user_manager\user_manager.js" flattenhtml="true" type="BINDATA" />
        <include name="IDR_MD_USER_MANAGER_PAGES_HTML" file="resources\md_user_manager\user_manager_pages.html" type="BINDATA" />
        <include name="IDR_MD_USER_MANAGER_PAGES_JS" file="resources\md_user_manager\user_manager_pages.js" type="BINDATA" />
        <include name="IDR_MD_USER_MANAGER_SHARED_STYLES_HTML" file="resources\md_user_manager\shared_styles.html" flattenhtml="true" type="BINDATA" />
        <include name="IDR_MD_USER_MANAGER_STRINGS_HTML" file="resources\md_user_manager\strings.html" type="BINDATA" />
        <include name="IDR_MD_USER_MANAGER_TUTORIAL_HTML" file="resources\md_user_manager\user_manager_tutorial.html" type="BINDATA" />
        <include name="IDR_MD_USER_MANAGER_TUTORIAL_JS" file="resources\md_user_manager\user_manager_tutorial.js" type="BINDATA" />
      </if>
      <if expr="is_macosx">
        <include name="IDR_RECENTLY_CLOSED_WINDOW" file="resources\ntp4\images\closed_window.png" type="BINDATA" />
      </if>
      <if expr="not is_android">
        <include name="IDR_IDENTITY_INTERNALS_HTML" file="resources\identity_internals.html" type="BINDATA" />
        <include name="IDR_IDENTITY_INTERNALS_CSS" file="resources\identity_internals.css" type="BINDATA" />
        <include name="IDR_IDENTITY_INTERNALS_JS" file="resources\identity_internals.js" type="BINDATA" />
      </if>
      <include name="IDR_DEVICE_LOG_UI_HTML" file="resources\device_log_ui\device_log_ui.html" type="BINDATA" compress="gzip" />
      <include name="IDR_DEVICE_LOG_UI_JS" file="resources\device_log_ui\device_log_ui.js" type="BINDATA" compress="gzip" />
      <include name="IDR_DEVICE_LOG_UI_CSS" file="resources\device_log_ui\device_log_ui.css" type="BINDATA" compress="gzip" />
      <if expr="chromeos">
        <include name="IDR_NETWORK_UI_HTML" file="resources\chromeos\network_ui\network_ui.html" type="BINDATA" />
        <include name="IDR_NETWORK_UI_JS" file="resources\chromeos\network_ui\network_ui.js" type="BINDATA" />
        <include name="IDR_NETWORK_UI_CSS" file="resources\chromeos\network_ui\network_ui.css" type="BINDATA" />
      </if>
      <if expr="_google_chrome">
        <include name="IDR_PREF_HASH_SEED_BIN" file="resources\settings_internal\pref_hash_seed.bin" type="BINDATA" />
        <include name="IDR_ADDITIONAL_MODULE_IDS" file="${additional_modules_list_file}" use_base_dir="false" type="BINDATA" />
      </if>
      <if expr="chromeos">
        <include name="IDR_SOUND_STARTUP_WAV" file="resources\chromeos\sounds\startup.wav" type="BINDATA" />
        <include name="IDR_SOUND_STARTUP2_WAV" file="resources\chromeos\sounds\startup2.wav" type="BINDATA" />
        <include name="IDR_SOUND_LOCK_WAV" file="resources\chromeos\sounds\lock.wav" type="BINDATA" />
        <include name="IDR_SOUND_UNLOCK_WAV" file="resources\chromeos\sounds\unlock.wav" type="BINDATA" />
        <include name="IDR_SOUND_SHUTDOWN_WAV" file="resources\chromeos\sounds\shutdown.wav" type="BINDATA" />
        <include name="IDR_SOUND_SPOKEN_FEEDBACK_ENABLED_WAV" file="resources\chromeos\sounds\spoken_feedback_enabled.wav" type="BINDATA" />
        <include name="IDR_SOUND_SPOKEN_FEEDBACK_DISABLED_WAV" file="resources\chromeos\sounds\spoken_feedback_disabled.wav" type="BINDATA" />
        <include name="IDR_SOUND_VOLUME_ADJUST_WAV" file="resources\chromeos\sounds\volume_adjust.wav" type="BINDATA" />
        <include name="IDR_SOUND_CAMERA_SNAP_WAV" file="resources\chromeos\sounds\camera_snap.wav" type="BINDATA" />
        <include name="IDR_SOUND_OBJECT_DELETE_WAV" file="resources\chromeos\sounds\object_delete.wav" type="BINDATA" />
        <include name="IDR_SOUND_PASSTHROUGH_WAV" file="resources\chromeos\sounds\earcons\passthrough.wav" type="BINDATA" />
        <include name="IDR_SOUND_EXIT_SCREEN_WAV" file="resources\chromeos\sounds\earcons\exit_screen.wav" type="BINDATA" />
        <include name="IDR_SOUND_ENTER_SCREEN_WAV" file="resources\chromeos\sounds\earcons\enter_screen.wav" type="BINDATA" />
        <include name="IDR_SOUND_SPOKEN_FEEDBACK_TOGGLE_COUNTDOWN_HIGH_WAV" file="resources\chromeos\sounds\spoken_feedback_toggle_countdown_high.wav" type="BINDATA" />
        <include name="IDR_SOUND_SPOKEN_FEEDBACK_TOGGLE_COUNTDOWN_LOW_WAV" file="resources\chromeos\sounds\spoken_feedback_toggle_countdown_low.wav" type="BINDATA" />
        <include name="IDR_SOUND_TOUCH_TYPE_WAV" file="resources\chromeos\sounds\touch_type.wav" type="BINDATA" />
        <include name="IDR_SOUND_DICTATION_END_WAV" file="resources\chromeos\sounds\earcons\audio_end.wav" type="BINDATA" />
        <include name="IDR_SOUND_DICTATION_START_WAV" file="resources\chromeos\sounds\earcons\audio_initiate.wav" type="BINDATA" />
        <include name="IDR_SOUND_DICTATION_CANCEL_WAV" file="resources\chromeos\sounds\earcons\null_selection.wav" type="BINDATA" />
      </if>
     <if expr="chromeos">
        <include name="IDR_ABOUT_POWER_HTML" file="resources\chromeos\power.html" type="BINDATA" />
        <include name="IDR_ABOUT_POWER_JS" file="resources\chromeos\power.js" type="BINDATA" />
        <include name="IDR_ABOUT_POWER_CSS" file="resources\chromeos\power.css" type="BINDATA" />
        <include name="IDR_DEVICE_EMULATOR_HTML" file="resources\chromeos\emulator\device_emulator.html" type="BINDATA" />
        <include name="IDR_DEVICE_EMULATOR_AUDIO_SETTINGS_HTML" file="resources\chromeos\emulator\audio_settings.html" type="BINDATA" />
        <include name="IDR_DEVICE_EMULATOR_AUDIO_SETTINGS_JS" file="resources\chromeos\emulator\audio_settings.js" type="BINDATA" />
        <include name="IDR_DEVICE_EMULATOR_BATTERY_SETTINGS_HTML" file="resources\chromeos\emulator\battery_settings.html" type="BINDATA" />
        <include name="IDR_DEVICE_EMULATOR_BATTERY_SETTINGS_JS" file="resources\chromeos\emulator\battery_settings.js" type="BINDATA" />
        <include name="IDR_DEVICE_EMULATOR_BLUETOOTH_SETTINGS_HTML" file="resources\chromeos\emulator\bluetooth_settings.html" type="BINDATA" />
        <include name="IDR_DEVICE_EMULATOR_BLUETOOTH_SETTINGS_JS" file="resources\chromeos\emulator\bluetooth_settings.js" type="BINDATA" />
        <include name="IDR_DEVICE_EMULATOR_ICONS_HTML" file="resources\chromeos\emulator\icons.html" type="BINDATA" />
        <include name="IDR_DEVICE_EMULATOR_INPUT_DEVICE_SETTINGS_HTML" file="resources\chromeos\emulator\input_device_settings.html" type="BINDATA" />
        <include name="IDR_DEVICE_EMULATOR_INPUT_DEVICE_SETTINGS_JS" file="resources\chromeos\emulator\input_device_settings.js" type="BINDATA" />
        <include name="IDR_DEVICE_EMULATOR_PAGES_HTML" file="resources\chromeos\emulator\device_emulator_pages.html" type="BINDATA" />
        <include name="IDR_DEVICE_EMULATOR_PAGES_JS" file="resources\chromeos\emulator\device_emulator_pages.js" type="BINDATA" />
        <include name="IDR_DEVICE_EMULATOR_SHARED_STYLES_HTML" file="resources\chromeos\emulator\shared_styles.html" type="BINDATA" />
      </if>
      <include name="IDR_EASY_UNLOCK_MANIFEST" file="resources\easy_unlock\manifest.json" type="BINDATA" />
      <include name="IDR_EASY_UNLOCK_MANIFEST_SIGNIN" file="resources\easy_unlock\manifest_signin.json" type="BINDATA" />
      <if expr="chromeos">
        <include name="IDR_SET_TIME_HTML" file="resources\chromeos\set_time.html" type="BINDATA" />
        <include name="IDR_SET_TIME_CSS" file="resources\chromeos\set_time.css" type="BINDATA" />
        <include name="IDR_SET_TIME_JS" file="resources\chromeos\set_time.js" type="BINDATA" />
      </if>
      <if expr="chromeos">
        <if expr="_google_chrome">
          <then>
            <include name="IDR_GOOGLE_XKB_MANIFEST" file="resources\chromeos\input_method\google_xkb_manifest.json" type="BINDATA" />
          </then>
          <else>
            <include name="IDR_XKB_MANIFEST" file="resources\chromeos\input_method\xkb_manifest.json" type="BINDATA" />
            <include name="IDR_M17N_MANIFEST" file="resources\chromeos\input_method\m17n_manifest.json" type="BINDATA" />
            <include name="IDR_PINYIN_MANIFEST" file="resources\chromeos\input_method\pinyin_manifest.json" type="BINDATA" />
            <include name="IDR_ZHUYIN_MANIFEST" file="resources\chromeos\input_method\zhuyin_manifest.json" type="BINDATA" />
            <include name="IDR_CANGJIE_MANIFEST" file="resources\chromeos\input_method\cangjie_manifest.json" type="BINDATA" />
            <include name="IDR_MOZC_MANIFEST" file="resources\chromeos\input_method\mozc_manifest.json" type="BINDATA" />
            <include name="IDR_HANGUL_MANIFEST" file="resources\chromeos\input_method\hangul_manifest.json" type="BINDATA" />
          </else>
        </if>
        <include name="IDR_BRAILLE_MANIFEST" file="resources\chromeos\braille_ime\manifest.json" type="BINDATA" />
      </if>
      <part file="media_router_resources.grdp" />
      <if expr="chromeos or is_win or is_macosx">
        <include name="IDR_CAST_HTML" file="resources\cast\cast.html" type="BINDATA" />
        <include name="IDR_CAST_CSS" file="resources\cast\cast.css" type="BINDATA" />
        <include name="IDR_CAST_JS" file="resources\cast\cast.js" type="BINDATA" />
        <include name="IDR_CAST_FAVICON" file="resources\cast\cast_favicon.ico" type="BINDATA" />
      </if>
      <if expr="not is_android">
        <include name="IDR_IME_WINDOW_CLOSE" file="resources\input_ime\ime_window_close.png" type="BINDATA" />
        <include name="IDR_IME_WINDOW_CLOSE_C" file="resources\input_ime\ime_window_close_click.png" type="BINDATA" />
        <include name="IDR_IME_WINDOW_CLOSE_H" file="resources\input_ime\ime_window_close_hover.png" type="BINDATA" />
      </if>
      <include name="IDR_CHROME_CONTENT_BROWSER_MANIFEST_OVERLAY" file="${root_gen_dir}\chrome\app\chrome_content_browser_manifest_overlay.json" use_base_dir="false" type="BINDATA" />
      <include name="IDR_CHROME_CONTENT_GPU_MANIFEST_OVERLAY" file="${root_gen_dir}\chrome\app\chrome_content_gpu_manifest_overlay.json" type="BINDATA" use_base_dir="false" />
      <include name="IDR_CHROME_CONTENT_PLUGIN_MANIFEST_OVERLAY" file="${root_gen_dir}\chrome\app\chrome_content_plugin_manifest_overlay.json" type="BINDATA" use_base_dir="false" />
      <include name="IDR_CHROME_CONTENT_PACKAGED_SERVICES_MANIFEST_OVERLAY" file="${root_gen_dir}\chrome\app\chrome_content_packaged_services_manifest_overlay.json" type="BINDATA" use_base_dir="false"/>
      <include name="IDR_CHROME_CONTENT_RENDERER_MANIFEST_OVERLAY" file="${root_gen_dir}\chrome\app\chrome_content_renderer_manifest_overlay.json" type="BINDATA" use_base_dir="false" />
      <include name="IDR_CHROME_CONTENT_UTILITY_MANIFEST_OVERLAY" file="${root_gen_dir}\chrome\app\chrome_content_utility_manifest_overlay.json" type="BINDATA" use_base_dir="false" />
      <include name="IDR_NACL_LOADER_MANIFEST" file="../../components/nacl/loader/nacl_loader_manifest.json" type="BINDATA" />
      <if expr="is_win">
        <include name="IDR_NACL_BROKER_MANIFEST" file="../../components/nacl/broker/nacl_broker_manifest.json" type="BINDATA" />
      </if>
      <if expr="is_win">
        <include name="IDR_WELCOME_WIN10_DEFAULT_WEBP" file="resources\welcome\default.webp" type="BINDATA" />
        <include name="IDR_WELCOME_WIN10_PIN_WEBP" file="resources\welcome\pin.webp" type="BINDATA" />
      </if>
      <include name="IDR_SSL_ERROR_ASSISTANT_PB" file="${root_gen_dir}/chrome/browser/resources/ssl/ssl_error_assistant/ssl_error_assistant.pb" use_base_dir="false" type="BINDATA" />
      <if expr="is_android or is_linux">
        <include name="IDR_SANDBOX_INTERNALS_HTML" file="resources\sandbox_internals\sandbox_internals.html" flattenhtml="true" allowexternalscript="true" type="BINDATA" compress="gzip" />
        <include name="IDR_SANDBOX_INTERNALS_JS" file="resources\sandbox_internals\sandbox_internals.js" type="BINDATA" compress="gzip" />
      </if>
      <include name="IDR_MEDIA_ENGAGEMENT_HTML" file="resources\media\media_engagement.html" flattenhtml="true" type="BINDATA" compress="gzip" allowexternalscript="true" />
      <include name="IDR_MEDIA_ENGAGEMENT_JS" file="resources\media\media_engagement.js" flattenhtml="true" type="BINDATA" compress="gzip" />
      <include name="IDR_MEDIA_ENGAGEMENT_MOJO_JS" file="${root_gen_dir}\chrome\browser\media\media_engagement_score_details.mojom.js" use_base_dir="false" type="BINDATA" compress="gzip" />
      <if expr="chromeos">
        <include name="IDR_SYS_INTERNALS_HTML" file="resources\chromeos\sys_internals\index.html" type="BINDATA" />
        <include name="IDR_SYS_INTERNALS_CSS" file="resources\chromeos\sys_internals\index.css" type="BINDATA" />
        <include name="IDR_SYS_INTERNALS_JS" file="resources\chromeos\sys_internals\index.js" type="BINDATA" />
        <include name="IDR_SYS_INTERNALS_CONSTANT_JS" file="resources\chromeos\sys_internals\constants.js" type="BINDATA" />
        <include name="IDR_SYS_INTERNALS_LINE_CHART_CSS" file="resources\chromeos\sys_internals\line_chart\line_chart.css" type="BINDATA" />
        <include name="IDR_SYS_INTERNALS_LINE_CHART_JS" file="resources\chromeos\sys_internals\line_chart\index.js" flattenhtml="true" type="BINDATA" />
        <include name="IDR_SYS_INTERNALS_IMAGE_MENU_SVG" file="resources\chromeos\sys_internals\img\menu.svg" type="BINDATA" />
        <include name="IDR_SYS_INTERNALS_IMAGE_INFO_SVG" file="resources\chromeos\sys_internals\img\info.svg" type="BINDATA" />
        <include name="IDR_SYS_INTERNALS_IMAGE_CPU_SVG" file="resources\chromeos\sys_internals\img\cpu.svg" type="BINDATA" />
        <include name="IDR_SYS_INTERNALS_IMAGE_MEMORY_SVG" file="resources\chromeos\sys_internals\img\memory.svg" type="BINDATA" />
        <include name="IDR_SYS_INTERNALS_IMAGE_ZRAM_SVG" file="resources\chromeos\sys_internals\img\zram.svg" type="BINDATA" />
      </if>
      <if expr="chromeos">
        <include name="IDR_ASSISTANT_LOGO_PNG" file="resources\chromeos\assistant_optin\assistant_logo.png" type="BINDATA" />
      </if>
      <if expr="safe_browsing_mode == 1">
        <include name="IDR_RESET_PASSWORD_HTML" file="resources\reset_password\reset_password.html" type="BINDATA" compress="gzip" />
        <include name="IDR_RESET_PASSWORD_JS" file="resources\reset_password\reset_password.js" type="BINDATA" compress="gzip" />
      </if>
    </includes>
  </release>
</grit>
