{
  "extract_dir": "",
  "hash": "e09c06db6094e02704487dd08d1f5ea62fb18eec",
  "log_url": "https://storage.googleapis.com/nativeclient-once/log/gdb_i686_w64_mingw32_c8c1700f107d83908a37cb4c4f501784f2aad314.log",
  "name": "gdb_i686_w64_mingw32.tgz",
  "tar_src_dir": "",
  "url": "https://storage.googleapis.com/nativeclient-once/object/gdb_i686_w64_mingw32_c8c1700f107d83908a37cb4c4f501784f2aad314.tgz"
}