{
  "extract_dir": "",
  "hash": "fe320574457b2ca6677f84388c4c5b92d530cae6",
  "log_url": "https://storage.googleapis.com/nativeclient-once/log/core_sdk_libs_i686_1e145e422e4754c0cbe00c0d4d5e131cd112b81a.log",
  "name": "core_sdk_libs_i686.tgz",
  "tar_src_dir": "",
  "url": "https://storage.googleapis.com/nativeclient-once/object/core_sdk_libs_i686_1e145e422e4754c0cbe00c0d4d5e131cd112b81a.tgz"
}