{
  "extract_dir": "",
  "hash": "db6d96dc374151ece6f91cbe686435fbf464cbbe",
  "log_url": "https://storage.googleapis.com/nativeclient-once/log/libcxx_le32_67320694444653d9ccfedaa8f4e0780bdf6fffd3.log",
  "name": "libcxx_le32.tgz",
  "tar_src_dir": "",
  "url": "https://storage.googleapis.com/nativeclient-once/object/libcxx_le32_67320694444653d9ccfedaa8f4e0780bdf6fffd3.tgz"
}