{
  "extract_dir": "",
  "hash": "ee5e8faaef043b2aef9e9427de40f176c843d09f",
  "log_url": "https://storage.googleapis.com/nativeclient-once/log/libgcc_eh_x86_32_6dc8bbe08474537602c66fd6db3024b812d91448.log",
  "name": "libgcc_eh_x86_32.tgz",
  "tar_src_dir": "",
  "url": "https://storage.googleapis.com/nativeclient-once/object/libgcc_eh_x86_32_6dc8bbe08474537602c66fd6db3024b812d91448.tgz"
}