{
  "extract_dir": "",
  "hash": "9915bd57637a76f36dcfbde41ca5297c015e84c3",
  "log_url": "https://storage.googleapis.com/nativeclient-once/log/libs_support_x86_64_990a5f44c8554f6386b7726373b897ef76b20cbc.log",
  "name": "libs_support_x86_64.tgz",
  "tar_src_dir": "",
  "url": "https://storage.googleapis.com/nativeclient-once/object/libs_support_x86_64_990a5f44c8554f6386b7726373b897ef76b20cbc.tgz"
}