{
  "extract_dir": "",
  "hash": "58143def7220ee6c3ae4368107fd845353b50e69",
  "log_url": "https://storage.googleapis.com/nativeclient-once/log/libs_support_x86_64_bc_3469bcf0976a1ffb0eb74e003f8a4ae734ce470f.log",
  "name": "libs_support_x86_64_bc.tgz",
  "tar_src_dir": "",
  "url": "https://storage.googleapis.com/nativeclient-once/object/libs_support_x86_64_bc_3469bcf0976a1ffb0eb74e003f8a4ae734ce470f.tgz"
}