{
  "extract_dir": "",
  "hash": "330251658e9cc93705bf84bb42780784a4367f7b",
  "log_url": "https://storage.googleapis.com/nativeclient-once/log/libs_support_i686_bc_ef96419443e760698458b1eda8e31555be0d3c7d.log",
  "name": "libs_support_i686_bc.tgz",
  "tar_src_dir": "",
  "url": "https://storage.googleapis.com/nativeclient-once/object/libs_support_i686_bc_ef96419443e760698458b1eda8e31555be0d3c7d.tgz"
}